subsystem,only AA,only lip,only RNA,only DNA
,,,,
"Transport, Inner Membrane",,3.0,,
"Transport, Outer Membrane Porin",2.0,1.0,2.0,1.0
"Transport, Outer Membrane",,1.0,,
Nucleotide Salvage Pathway,,6.0,3.0,6.0
Glycerophospholipid Metabolism,,10.0,,
Alternate Carbon Metabolism,,2.0,,
Cofactor and Prosthetic Group Biosynthesis,,1.0,,1.0
Cell Envelope Biosynthesis,,38.0,,
Murein Recycling,,,,
Nitrogen Metabolism,,,,
Methylglyoxal Metabolism,,,,
Arginine and Proline Metabolism,10.0,,,
Membrane Lipid Metabolism,,2.0,,
Pyruvate Metabolism,,,,
"Tyrosine, Tryptophan, and Phenylalanine Metabolism",16.0,,,
"Valine, Leucine, and Isoleucine Metabolism",14.0,,,
Lipopolysaccharide Biosynthesis / Recycling,,11.0,,
Unassigned,1.0,1.0,1.0,1.0
Citric Acid Cycle,4.0,4.0,,
Cysteine Metabolism,6.0,,,
Purine and Pyrimidine Biosynthesis,12.0,18.0,18.0,18.0
Inorganic Ion Transport and Metabolism,2.0,1.0,1.0,1.0
Methionine Metabolism,4.0,,,
Alanine and Aspartate Metabolism,2.0,3.0,1.0,1.0
tRNA Charging,,,,
Threonine and Lysine Metabolism,12.0,8.0,,
Histidine Metabolism,9.0,,,
Oxidative Phosphorylation,,,,
Glycine and Serine Metabolism,,,,
Pentose Phosphate Pathway,,,,
Glycolysis/Gluconeogenesis,,,,
Folate Metabolism,1.0,,,
Glutamate metabolism,1.0,1.0,1.0,1.0
Glutamate Metabolism,,,,
Glyoxylate Metabolism,,,,
Anaplerotic Reactions,,,,
Murein Biosynthesis,,2.0,,
tRNA charging,,,,
